/home/wtc/student_work/Java_projects/ToyRobot_Main/submission-102-java-004-toy_robot/src/test/java/za/co/wethinkcode/lms/test/SimpleMazeTest.java
/home/wtc/student_work/Java_projects/ToyRobot_Main/submission-102-java-004-toy_robot/src/test/java/za/co/wethinkcode/lms/test/StudentTest.java
/home/wtc/student_work/Java_projects/ToyRobot_Main/submission-102-java-004-toy_robot/src/test/java/za/co/wethinkcode/lms/test/RunJUnit5TestsFromJava.java
/home/wtc/student_work/Java_projects/ToyRobot_Main/submission-102-java-004-toy_robot/src/test/java/za/co/wethinkcode/toyrobot/MazeRunnerCommandTest.java
/home/wtc/student_work/Java_projects/ToyRobot_Main/submission-102-java-004-toy_robot/src/test/java/za/co/wethinkcode/toyrobot/BackCommandTest.java
/home/wtc/student_work/Java_projects/ToyRobot_Main/submission-102-java-004-toy_robot/src/test/java/za/co/wethinkcode/toyrobot/ForwardCommandTest.java
/home/wtc/student_work/Java_projects/ToyRobot_Main/submission-102-java-004-toy_robot/src/test/java/za/co/wethinkcode/lms/test/EmptyMazeTest.java
/home/wtc/student_work/Java_projects/ToyRobot_Main/submission-102-java-004-toy_robot/src/test/java/za/co/wethinkcode/toyrobot/PositionTest.java
/home/wtc/student_work/Java_projects/ToyRobot_Main/submission-102-java-004-toy_robot/src/test/java/za/co/wethinkcode/toyrobot/CommandTest.java
/home/wtc/student_work/Java_projects/ToyRobot_Main/submission-102-java-004-toy_robot/src/test/java/za/co/wethinkcode/toyrobot/RobotTest.java
/home/wtc/student_work/Java_projects/ToyRobot_Main/submission-102-java-004-toy_robot/src/test/java/za/co/wethinkcode/toyrobot/RightCommandTest.java
/home/wtc/student_work/Java_projects/ToyRobot_Main/submission-102-java-004-toy_robot/src/test/java/za/co/wethinkcode/toyrobot/LeftCommandTest.java
/home/wtc/student_work/Java_projects/ToyRobot_Main/submission-102-java-004-toy_robot/src/test/java/za/co/wethinkcode/toyrobot/maze/EmptyMazeTest.java
/home/wtc/student_work/Java_projects/ToyRobot_Main/submission-102-java-004-toy_robot/src/test/java/za/co/wethinkcode/lms/test/RobotTest.java
/home/wtc/student_work/Java_projects/ToyRobot_Main/submission-102-java-004-toy_robot/src/test/java/za/co/wethinkcode/lms/test/ObstacleTest.java
/home/wtc/student_work/Java_projects/ToyRobot_Main/submission-102-java-004-toy_robot/src/test/java/za/co/wethinkcode/lms/test/WorldTest.java
